{
    "antifeatures": {
        "Ads": "יישומון זה מכיל פרסום",
        "DisabledAlgorithm": "ליישומון זה יש חתימת אבטחה חלשה",
        "KnownVuln": "יישומון זה מכיל חולשת אבטחה ידועה",
        "NoSourceSince": "קוד המקור אינו זמין עוד, אין עדכונים.",
        "NonFreeAdd": "יישומון זה מקדם תוספים שאינם חופשיים",
        "NonFreeAssets": "יישומון זה מכיל נכסים בלתי חופשיים",
        "NonFreeDep": "יישומון זה תלוי ביישומונים אחרים שאינם חופשיים",
        "NonFreeNet": "יישומון זה מקדם שירותי רשת שאינם חופשיים",
        "Tracking": "יישומון זה עוקב ומדווח על פעילותך",
        "UpstreamNonFree": "קוד המקור בתצורתו המקורית אינו חופשי לחלוטין"
    },
    "index": {
        "download_fdroid": "הורדת F-Droid",
        "gpg_signature": "חתימת PGP",
        "introduction": "F-Droid הוא קטלוג בר התקנה של יישומוני תכנה חופשית (FOSS) לפלטפורמת Android. הלקוח מקל על העיון, ההתקנה ושמירה על עדכונים להתקן שלך.",
        "screenshot": "צילום מסך של יישומון F-Droid ל־Android",
        "title": "מה זה F-Droid?"
    },
    "navigation": {
        "about": "על אודות",
        "browse": "עיון",
        "contribute": "תרומה",
        "documentation": "מסמכים",
        "forum": "פורום",
        "issues": "בעיות",
        "news": "חדשות"
    },
    "package": {
        "anti_features": "תכונות פוגעניות",
        "anti_features_warning": "ביישומון זה ישנן תכונות שעשויות לא לשאת חן בעיניך.",
        "author": "יוצר",
        "build_metadata": "נתונים על הבנייה",
        "changelog": "יומן שינויים",
        "donate": "תרומה",
        "download": "הורדת [file_extension]",
        "flattr": "Flattr",
        "gpg_signature": "חתימת PGP",
        "issue_tracker": "עוקב תקלות",
        "liberapay": "Liberapay",
        "license": "רישיון",
        "minimum_android_version": "גרסה זו דורשת Android בגרסה [android_version] ומעלה.",
        "new_in_version": "חדש בגרסה [latest_version]",
        "packages": "חבילות",
        "permissions": "הרשאות",
        "signed_by_developer": "היא נבנתה ונחתמה על ידי המפתח המקורי.",
        "signed_by_fdroid": "היא נבנתה ונחתמה על ידי F-Droid, לצד ההבטחה שהיא תישאר נאמנה ל<a href=\"[source_code_url]\">קובץ איסוף המקור הזה</a>.",
        "source_code": "קוד מקור",
        "suggest_downloading_via_fdroid": "למרות שניתן להוריד קובצי APK להלן כדי להעניק לך בחירה, ראוי לזכור שהתקנה בדרך זו לא תבטיח התרעות על עדכונים והיא פחות מאובטחת מבחינת הורדה. אנו ממליצים להתקין דרך לקוח ה־F-Droid ולהשתמש בו.",
        "technical_info": "פירוט טכני",
        "translation": "תרגום",
        "version_info": "<b>גרסה [package_version]</b> ([package_version_code]) - נוספה ב־[package_added_date]",
        "website": "אתר"
    },
    "permissions": {
        "permdesc_acceptHandovers": "הרשאה זו מתירה לאפליקציה להמשיך שיחה שהחלה באפליקציה אחרת.",
        "permdesc_accessCoarseLocation": "‏אפליקציה זו יכולה לזהות את המיקום שלך על סמך מקורות מיקום ברשת, כגון אנטנות סלולריות ורשתות Wi-Fi. שירותי מיקום אלה חייבים להיות מופעלים וזמינים בטלפון שלך כדי שהאפליקציה תוכל להשתמש בהם.",
        "permdesc_accessDrmCertificates": "‏מאפשרת לאפליקציה לנהל תצורה של אישורי DRM ולהשתמש בהם. לעולם לא אמורה להיות נחוצה עבור אפליקציה רגילה.",
        "permdesc_accessFineLocation": "‏אפליקציה זו יכולה לזהות את המיקום שלך על סמך GPS או מקורות מיקום ברשת, כגון אנטנות סלולריות ורשתות Wi-Fi. שירותי מיקום אלה חייבים להיות מופעלים וזמינים בטלפון שלך כדי שהאפליקציה תוכל להשתמש בהם. ייתכן שהדבר יגביר את צריכת הסוללה.",
        "permdesc_accessImsCallService": "‏מאפשר לאפליקציה להשתמש בשירות ה-IMS לביצוע שיחות ללא התערבותך.",
        "permdesc_accessLocationExtraCommands": "‏מאפשרת לאפליקציה לגשת לפקודות נוספות של ספק המיקום. הרשאה זו עשויה לאפשר לאפליקציה לשבש את פעולת ה-GPS או מקורות מיקום אחרים.",
        "permdesc_accessNetworkConditions": "מאפשרת לאפליקציה לקלוט מעקב אחר תנאי רשת. לעולם לא אמורה להיות נחוצה עבור אפליקציות רגילות.",
        "permdesc_accessNetworkState": "מאפשר לאפליקציה להציג מידע לגבי חיבורי רשת, למשל, אילו רשתות קיימות ומחוברות.",
        "permdesc_accessNotifications": "מאפשר לאפליקציה לאחזר, לבדוק ולמחוק התראות, כולל כאלה שפורסמו על ידי אפליקציות אחרות.",
        "permdesc_accessWifiState": "‏מאפשר לאפליקציה להציג מידע על רשתות Wi-Fi, למשל, האם Wi-Fi מופעל, כמו גם שם מכשירי ה-Wi-Fi המחוברים.",
        "permdesc_accessWimaxState": "‏מאפשר לאפליקציה לדעת האם WiNMAX מופעל, כמו גם לקבל מידע האם רשתות WiNMAX כלשהן מחוברות.",
        "permdesc_access_notification_policy": "מאפשר לאפליקציה לקרוא ולכתוב את התצורה של 'נא לא להפריע'.",
        "permdesc_addVoicemail": "מאפשר לאפליקציה להוסיף הודעות לתיבת הדואר הקולי.",
        "permdesc_answerPhoneCalls": "מתירה לאפליקציה לענות לשיחות טלפון נכנסות",
        "permdesc_bindCarrierMessagingService": "מאפשרת לבעלים לאגד לממשק ברמה העליונה של שירות העברת הודעות של ספק. לעולם לא אמורה להיות נחוצה עבור אפליקציות רגילות.",
        "permdesc_bindCarrierServices": "מאפשר לבעלים לאגד לשירות ספק. לעולם לא אמור להיות נחוץ לאפליקציות רגילות.",
        "permdesc_bindConditionProviderService": "מאפשרת לבעלים לאגד לממשק ברמה העליונה של שירות ספק תנאי. לעולם לא אמורה להיות נחוצה עבור אפליקציות רגילות.",
        "permdesc_bindDreamService": "מאפשרת לבעלים לבצע איגוד לממשק הרמה העליונה של שירות ׳חלום בהקיץ׳. הרשאה זו אף פעם אינה נחוצה לאפליקציות רגילות.",
        "permdesc_bindNotificationListenerService": "הרשאה זו מאפשרת למשתמש לבצע איגוד לממשק הרמה העליונה של שירות מאזין להתראות. הרשאה זו אף פעם אינה נחוצה לאפליקציות רגילים.",
        "permdesc_bind_connection_service": "מאפשר לאפליקציה ליצור אינטראקציה עם שירותי טלפוניה כדי לבצע/לקבל שיחות.",
        "permdesc_bind_incall_service": "מאפשר לאפליקציה לקבוע מתי ואיך המשתמש יראה את מסך השיחה הנכנסת.",
        "permdesc_bluetooth": "‏מאפשר לאפליקציה להציג את תצורת ה-Bluetooth בטלפון, וכן ליצור ולקבל חיבורים עם מכשירים מותאמים.",
        "permdesc_bluetoothAdmin": "‏מאפשר לאפליקציה להגדיר את תצורתו של הטלפון המקומי מסוג Bluetooth וכן לגלות מכשירים מרוחקים ולבצע התאמה איתם.",
        "permdesc_bodySensors": "מאפשר לאפליקציה לגשת אל נתוני חיישנים העוקבים אחר מצבך הגופני, כמו קצב הלב.",
        "permdesc_broadcastSticky": "מאפשר לאפליקציה לשלוח שידורים דביקים, אשר נותרים לאחר סיום השידור. אפליקציות זדוניות עלולות להאט את פעילות הטלפון או להפוך אותה לבלתי יציבה על ידי אילוץ המכשיר להשתמש ביותר מדי זיכרון.",
        "permdesc_callPhone": "מאפשר לאפליקציה להתקשר למספרי טלפון ללא התערבותך. פעולה זו עשויה לגרום לשיחות או לחיובים לא צפויים. שים לב שהדבר לא מאפשר לאפליקציה להתקשר למספרי חירום. אפליקציות זדוניות עשויות לגרום לעלויות על ידי ביצוע שיחות ללא התערבותך.",
        "permdesc_camera": "אפליקציה זו יכולה להשתמש במצלמה כדי לצלם תמונות ולהקליט סרטונים בכל עת.",
        "permdesc_changeNetworkState": "מאפשר לאפליקציה לשנות את מצב הקישוריות של הרשת.",
        "permdesc_changeTetherState": "מאפשר לאפליקציה לשנות את מצב הקישוריות של רשת קשורה.",
        "permdesc_changeWifiMulticastState": "‏מאפשר לאפליקציה לקבל חבילות שנשלחו לכל המכשירים ברשת Wi-Fi באמצעות כתובות שידור לקבוצה, ולא רק בטלפון שלך. צריכת החשמל גבוהה יותר מאשר במצב שאינו שידור לקבוצה.",
        "permdesc_changeWifiState": "‏מאפשר לאפליקציה להתחבר לנקודות גישת Wi-Fi ולהתנתק מהן, וכן לבצע שינויים בתצורת המכשיר עבור רשתות Wi-Fi.",
        "permdesc_changeWimaxState": "‏מאפשר לאפליקציה לחבר את הטלפון לרשתות WiMAX ולהתנתק מהן.",
        "permdesc_connection_manager": "מאפשר לאפליקציה לנהל חיבורי תקשורת.",
        "permdesc_control_incall_experience": "מאפשר לאפליקציה לספק חוויית משתמש של שיחה נכנסת.",
        "permdesc_createNetworkSockets": "‏מאפשר לאפליקציה ליצור Sockets ולהשתמש בפרוטוקולי רשת מותאמים אישית. הדפדפן, כמו אפליקציות אחרות, מספק אמצעים לשליחת נתונים לאינטרנט, כך שאישור זה אינו נחוץ לשליחת נתונים לאינטרנט.",
        "permdesc_disableKeyguard": "מאפשר לאפליקציה להשבית את נעילת המקשים וכל אמצעי אבטחה משויך המבוסס על סיסמה. לדוגמה, הטלפון משבית את נעילת המקשים בעת קבלה של שיחת טלפון נכנסת, ולאחר מכן מפעיל מחדש את נעילת המקשים עם סיום השיחה.",
        "permdesc_enableCarMode": "מאפשר לאפליקציה לאפשר את מצב מכונית.",
        "permdesc_expandStatusBar": "מאפשר לאפליקציה להרחיב או לכווץ את שורת המצב.",
        "permdesc_foregroundService": "הרשאה זו מאפשרת לאפליקציה לעשות שימוש בשירותים בקדמה.",
        "permdesc_getAccounts": "מאפשר לאפליקציה לקבל רשימה של חשבונות המוכרים לטלפון. הדבר עשוי לכלול חשבונות שנוצרו על ידי אפליקציות שהתקנת.",
        "permdesc_getPackageSize": "מאפשר לאפליקציה לאחזר את הקוד, הנתונים, וגודלי קובצי המטמון שלו",
        "permdesc_getTasks": "מאפשר לאפליקציה לאחזר מידע לגבי משימות הפועלות כרגע ושפעלו לאחרונה. ייתכן שהדבר יתיר לאפליקציה לגלות מידע לגבי האפליקציות שבהן נעשה שימוש במכשיר.",
        "permdesc_handoverStatus": "‏מאפשר לאפליקציה הזו לקבל מידע על העברות Android Beam נוכחיות",
        "permdesc_install_shortcut": "מאפשר לאפליקציה להוסיף קיצורי דרך במסך דף הבית ללא התערבות המשתמש.",
        "permdesc_invokeCarrierSetup": "ההרשאה הזו מאפשרת לבעלים להפעיל את אפליקציית התצורה שסופקה על ידי ספק. לעולם לא אמורה להיות נחוצה עבור אפליקציות רגילות.",
        "permdesc_killBackgroundProcesses": "מאפשר לאפליקציה להפסיק תהליכים ברקע המבוצעים על ידי אפליקציות אחרות. הדבר עשוי לגרום להפסקת פעולתם של אפליקציות אחרות.",
        "permdesc_manageFingerprint": "מאפשר לאפליקציה להפעיל שיטות להוספה ומחיקה של תבניות טביעות אצבעות שבהן ייעשה שימוש.",
        "permdesc_manageNetworkPolicy": "מאפשר לאפליקציה לנהל מדיניות הרשת להגדיר כללים ספציפיים-לאפליקציה.",
        "permdesc_manageOwnCalls": "מאפשרת לאפליקציה לנתב את השיחות דרך המערכת כדי לשפר את חוויית השיחה.",
        "permdesc_manageProfileAndDeviceOwners": "מאפשרת לאפליקציות להגדיר את הבעלים של הפרופיל ואת בעל המכשיר.",
        "permdesc_modifyAudioSettings": "מאפשר לאפליקציה לשנות הגדרות אודיו גלובליות כמו עוצמת קול ובחירת הרמקול המשמש לפלט.",
        "permdesc_modifyNetworkAccounting": "הרשאה זו מאפשרת לאפליקציה לשנות את אופן החישוב של נתוני שימוש ברשת מול כל אפליקציה. לא מיועד לשימוש באפליקציות רגילות.",
        "permdesc_nfc": "מאפשר לאפליקציה נהל תקשורת עם תגים, כרטיסים וקוראים מסוג 'תקשורת מטווח קצר'.",
        "permdesc_persistentActivity": "מאפשר לאפליקציה להפוך חלקים ממנו לקבועים בזיכרון. פעולה זו עשויה להגביל את הזיכרון הזמין לאפליקציות אחרים ולהאט את פעולת הטלפון.",
        "permdesc_processOutgoingCalls": "מאפשרת לאפליקציה לראות את המספר המחויג במהלך ביצוע שיחה יוצאת, עם האפשרות להפנות את השיחה למספר אחר או לבטל את השיחה לחלוטין.",
        "permdesc_readCalendar": "אפליקציה זו יכולה לקרוא את כל אירועי היומן המאוחסנים בטלפון, ולשתף או לשמור את נתוני היומן.",
        "permdesc_readCallLog": "אפליקציה זו יכולה לקרוא את היסטוריית השיחות שלך.",
        "permdesc_readCellBroadcasts": "מאפשר לאפליקציה לקרוא הודעות שידור סלולרי שהתקבלו במכשיר שלך. התראות שידור סלולרי נשלחות במקומות מסוימים על מנת להזהיר אותך מפני מצבי חירום. אפליקציות זדוניות עשויות להפריע לביצועים או לפעולה של המכשיר שלך כאשר מתקבל שידור חירום סלולרי.",
        "permdesc_readContacts": "מאפשר לאפליקציה לקרוא נתונים לגבי אנשי הקשר שלך המאוחסנים בטלפון, כולל את התדירות שבה התקשרת, שלחת אימייל או יצרת קשר בדרכים אחרות עם אנשים ספציפיים. אישור זה מתיר לאפליקציות לשמור את נתוני אנשי הקשר שלך. כמו כן, אפליקציות זדוניות עשויות לשתף נתוני אנשי קשר ללא ידיעתך.",
        "permdesc_readHistoryBookmarks": "‏מאפשר לאפליקציה לקרוא את ההיסטוריה של כל כתובות האתרים שבהן הדפדפן ביקר, ואת כל ה-Bookmarks של הדפדפן. שים לב: דפדפני צד שלישי או אפליקציות אחרות עם יכולות לדפדוף באינטרנט אינם יכולים לאכוף אישור זה.",
        "permdesc_readInstallSessions": "מאפשר לאפליקציה לקרוא הפעלות התקנה. הרשאה זו מאפשרת לה לראות פרטים על התקנות פעילות של חבילות.",
        "permdesc_readNetworkUsageHistory": "מאפשר לאפליקציה לקרוא נתוני שימוש היסטוריים ברשת עבור רשתות ואפליקציות ספציפיות.",
        "permdesc_readPhoneNumbers": "מתירה לאפליקציה גישה למספרי הטלפון במכשיר.",
        "permdesc_readPhoneState": "מאפשר לאפליקציה לגשת לתכונות הטלפון של המכשיר. אישור זה מתיר לאפליקציה לגלות את מספר הטלפון ואת זיהויי המכשיר, האם שיחה פעילה ואת המספר המרוחק המחובר באמצעות שיחה.",
        "permdesc_readSms": "‏אפליקציה זו יכולה לקרוא את כל הודעות הטקסט (SMS) המאוחסנות בטלפון.",
        "permdesc_readSyncSettings": "מאפשר לאפליקציה לקרוא את הגדרות הסנכרון של חשבון. לדוגמה, ניתן לגלות כך האם האפליקציה 'אנשים' מסונכרן עם חשבון כלשהו.",
        "permdesc_readSyncStats": "מאפשר לאפליקציה לקרוא את סטטיסטיקת הסנכרון של חשבון, כולל היסטוריית אירועי הסנכרון וכמות הנתונים שסונכרנה.",
        "permdesc_receiveBootCompleted": "מאפשר לאפליקציה להפעיל את עצמו מיד עם השלמת תהליך האתחול של המערכת. משום כך הפעלת הטלפון עשויה להתארך והאפליקציה עלולה להאט את הפעילות הכללית של הטלפון, בשל פעילותה התמידית.",
        "permdesc_receiveMms": "‏מאפשר לאפליקציה לקבל ולעבד הודעות MMS. משמעות הדבר היא שהאפליקציה יכולה לעקוב אחר הודעות שנשלחו למכשיר או למחוק אותן מבלי להציג לך אותן.",
        "permdesc_receiveSms": "‏מאפשר לאפליקציה לקבל ולעבד הודעות SMS. משמעות הדבר היא שהאפליקציה יכולה לעקוב אחר הודעות שנשלחו למכשיר או למחוק אותן מבלי להציג לך אותן.",
        "permdesc_receiveWapPush": "‏מאפשר לאפליקציה לקבל ולעבד הודעות WAP. אישור זה כולל את היכולת לעקוב אחר הודעות שנשלחו אליך ולמחוק אותן מבלי להציג לך אותן.",
        "permdesc_recordAudio": "אפליקציה זו יכולה להשתמש במיקרופון כדי להקליט אודיו בכל עת.",
        "permdesc_register_call_provider": "מאפשר לאפליקציה לרשום חיבורי תקשורת חדשים.",
        "permdesc_register_sim_subscription": "‏מאפשר לאפליקציה לרשום חיבורי Telecom SIM חדשים.",
        "permdesc_removeDrmCertificates": "‏הרשאה זו מאפשרת לאפליקציה להסיר אישורי DRM. באפליקציות רגילות אף פעם לא אמור להיות בה צורך.",
        "permdesc_reorderTasks": "מאפשר לאפליקציה להעביר משימות לחזית ולרקע. האפליקציה עשוי לעשות זאת ללא התערבותך.",
        "permdesc_requestDeletePackages": "מתיר לאפליקציה לבקש מחיקה של חבילות.",
        "permdesc_requestIgnoreBatteryOptimizations": "מאפשר לאפליקציה לבקש רשות להתעלם מאופטימיזציות של הסוללה לאפליקציה הזו.",
        "permdesc_requestInstallPackages": "מתיר לאפליקציה לבקש התקנה של חבילות.",
        "permdesc_route_media_output": "מאפשר לאפליקציה לנתב פלט מדיה למכשירים חיצוניים אחרים.",
        "permdesc_runInBackground": "האפליקציה הזו יכולה לפעול ברקע. ייתכן שהסוללה תתרוקן מהר יותר במצב זה.",
        "permdesc_sdcardRead": "‏מאפשר לאפליקציה לקרוא את תוכן כרטיס ה-SD שלך.",
        "permdesc_sdcardWrite": "‏מאפשר לאפליקציה לכתוב לכרטיס ה-SD.",
        "permdesc_sendSms": "‏מאפשר לאפליקציה לשלוח הודעות SMS. הדבר עשוי לגרום לחיובים בלתי צפויים. אפליקציות זדוניות עלולות לגרום לעלויות על ידי שליחת הודעות ללא אישורך.",
        "permdesc_setAlarm": "מאפשר לאפליקציה להגדיר התראה באפליקציה מותקנת של שעון מעורר. אפליקציות מסוימות של שעון מעורר אינן מיישמות תכונה זו.",
        "permdesc_setInputCalibration": "מאפשרת לאפליקציה לשנות את פרמטרי הכיול של מסך המגע. לעולם לא אמורה להיות נחוצה לאפליקציות רגילות.",
        "permdesc_setTimeZone": "מאפשר לאפליקציה לשנות את אזור הזמן של הטלפון.",
        "permdesc_setWallpaper": "מאפשר לאפליקציה להגדיר את טפט המערכת.",
        "permdesc_setWallpaperHints": "מאפשר לאפליקציה להגדיר את סמני הגודל של טפט המערכת.",
        "permdesc_sim_communication": "‏מאפשרת ליישום לשלוח פקודות ל-SIM. זוהי הרשאה מסוכנת מאוד.",
        "permdesc_statusBar": "מאפשר לאפליקציה להשבית את שורת המצב או להוסיף ולהסיר סמלי מערכת.",
        "permdesc_statusBarService": "מאפשר לאפליקציה להופיע בשורת המצב.",
        "permdesc_subscribedFeedsRead": "מאפשר לאפליקציה לקבל פרטים על ההזנות הנוכחיות שמסונכרנות.",
        "permdesc_systemAlertWindow": "אפליקציה זו יכולה להופיע מעל אפליקציות אחרות או בחלקים אחרים של המסך. ייתכן שהדבר יפריע לך להשתמש באפליקציות וישנה את הופעתן.",
        "permdesc_transmitIr": "מאפשרת לאפליקציה להשתמש במשדר האינפרא-אדום של הטלפון.",
        "permdesc_uninstall_shortcut": "מאפשר לאפליקציה להסיר קיצורי דרך במסך דף הבית ללא התערבות המשתמש.",
        "permdesc_useBiometric": "מאפשרת לאפליקציה להשתמש בחומרה ביומטרית לצורך אימות",
        "permdesc_useDataInBackground": "האפליקציה הזו יכולה להשתמש בנתונים ברקע. ייתכן שצריכת הנתונים תעלה במצב זה.",
        "permdesc_useFingerprint": "מאפשר לאפליקציה להשתמש בחומרה של טביעות אצבעות לצורך אימות",
        "permdesc_use_sip": "‏אפשר לאפליקציה לבצע ולקבל שיחות SIP.",
        "permdesc_vibrate": "מאפשר לאפליקציה לשלוט ברטט.",
        "permdesc_wakeLock": "מאפשר לאפליקציה למנוע מהטלפון לעבור למצב שינה.",
        "permdesc_writeCalendar": "אפליקציה זו יכולה להוסיף, להסיר ולשנות אירועי יומן בטלפון. האפליקציה יכולה לשנות אירועים בלי להודיע לבעליהם ולשלוח הודעות שעשויות להיראות כאילו נשלחו מבעלי יומנים.",
        "permdesc_writeCallLog": "מאפשר לאפליקציה לשנות את יומן השיחות של הטלפון, כולל נתונים על שיחות נכנסות ויוצאות. אפליקציות זדוניות עלולות לעשות בכך שימוש כדי למחוק או לשנות את יומן השיחות שלך.",
        "permdesc_writeContacts": "מאפשר לאפליקציה לשנות את הנתונים לגבי אנשי הקשר שלך המאוחסנים בטלפון, כולל התדירות שבה התקשרת, שלחת אימייל או יצרת קשר בדרכים אחרות עם אנשי קשר ספציפיים. אישור זה מתיר לאפליקציות למחוק נתוני אנשי קשר.",
        "permdesc_writeGeolocationPermissions": "מאפשר לאפליקציה לשנות את הרשאות המיקום הגיאוגרפי של הדפדפן. אפליקציות זדוניות עלולות להשתמש בכך כדי לאפשר משלוח של פרטי מיקום לאתרים זדוניים אחרים.",
        "permdesc_writeHistoryBookmarks": "‏מאפשר לאפליקציה לשנות את ההיסטוריה או ה-Bookmarks של הדפדפן המאוחסנים בטלפון. הדבר עשוי לאפשר לאפליקציה למחוק או לשנות נתוני דפדפן. שים לב: אישור זה אינו ניתן לאכיפה על ידי דפדפני צד שלישי או אפליקציות אחרות בעלות יכולות גלישה באינטרנט.",
        "permdesc_writeSettings": "מאפשר לאפליקציה לשנות את נתוני הגדרות המערכת. אפליקציות זדוניות עלולות לשבש את תצורת המערכת שלך.",
        "permdesc_writeSyncSettings": "מאפשר לאפליקציה לשנות את הגדרות הסנכרון של חשבון. לדוגמה, ניתן להשתמש בכך על מנת להפעיל סנכרון של האפליקציה 'אנשים' עם חשבון כלשהו.",
        "permgroupdesc_calendar": "גישה אל היומן",
        "permgroupdesc_calllog": "קריאה וכתיבה של יומן השיחות של הטלפון",
        "permgroupdesc_camera": "צילום תמונות והקלטת וידאו",
        "permgroupdesc_contacts": "גישה אל אנשי הקשר",
        "permgroupdesc_location": "גישה אל מיקום המכשיר הזה",
        "permgroupdesc_microphone": "הקלטת אודיו",
        "permgroupdesc_phone": "התקשרות וניהול של שיחות טלפון",
        "permgroupdesc_sensors": "גישה אל נתוני חיישנים של הסימנים החיוניים שלך",
        "permgroupdesc_sms": "‏שליחה והצגה של הודעות SMS",
        "permgroupdesc_storage": "גישה אל תמונות, מדיה וקבצים במכשיר שלך",
        "permgrouplab_calendar": "יומן",
        "permgrouplab_calllog": "יומני שיחות",
        "permgrouplab_camera": "מצלמה",
        "permgrouplab_contacts": "אנשי קשר",
        "permgrouplab_location": "מיקום",
        "permgrouplab_microphone": "מיקרופון",
        "permgrouplab_phone": "טלפון",
        "permgrouplab_sensors": "חיישני גוף",
        "permgrouplab_sms": "SMS",
        "permgrouplab_storage": "אחסון",
        "permgrouprequest_calendar": "‏לתת לאפליקציה <b>",
        "permgrouprequest_calllog": "‏לתת לאפליקציה <b>",
        "permgrouprequest_camera": "‏לתת לאפליקציה <b>",
        "permgrouprequest_contacts": "‏לתת לאפליקציה <b>",
        "permgrouprequest_location": "‏לתת לאפליקציה <b>",
        "permgrouprequest_microphone": "‏לתת לאפליקציה <b>",
        "permgrouprequest_phone": "‏לתת לאפליקציה <b>",
        "permgrouprequest_sensors": "‏לתת לאפליקציה <b>",
        "permgrouprequest_sms": "‏לתת לאפליקציה <b>",
        "permgrouprequest_storage": "‏לתת לאפליקציה <b>",
        "permlab_acceptHandover": "המשך שיחה מאפליקציה אחרת",
        "permlab_accessCoarseLocation": "גישה אל מיקום משוער (מבוסס רשת)",
        "permlab_accessDrmCertificates": "‏גישה אל אישורי DRM",
        "permlab_accessFineLocation": "‏גישה אל מיקום מדויק (מבוסס GPS ורשת)",
        "permlab_accessImsCallService": "‏גישה אל שירות שיחות IMS",
        "permlab_accessLocationExtraCommands": "גישה לפקודות ספק מיקום נוספות",
        "permlab_accessNetworkConditions": "קליטת מעקב אחר תנאי רשת",
        "permlab_accessNetworkState": "הצג חיבורי רשת",
        "permlab_accessNotifications": "גישה להתראות",
        "permlab_accessWifiState": "‏הצג חיבורי Wi-Fi",
        "permlab_accessWimaxState": "‏התחברות והתנתקות מ-WiMAX",
        "permlab_access_notification_policy": "גישה אל 'נא לא להפריע'",
        "permlab_addVoicemail": "הוסף דואר קולי",
        "permlab_answerPhoneCalls": "מענה לשיחות טלפון",
        "permlab_bindCarrierMessagingService": "איגוד לשירות העברת הודעות של ספק",
        "permlab_bindCarrierServices": "איגוד לשירותי ספק",
        "permlab_bindConditionProviderService": "איגוד לשירות ספק תנאי",
        "permlab_bindDreamService": "איגוד לשירות ׳חלום בהקיץ׳",
        "permlab_bindNotificationListenerService": "איגוד לשירות של מאזין להתראות",
        "permlab_bind_connection_service": "צור אינטראקציה עם שירותי טלפוניה",
        "permlab_bind_incall_service": "צור אינטראקציה עם מסך שיחה נכנסת",
        "permlab_bluetooth": "‏התאמה למכשירי Bluetooth",
        "permlab_bluetoothAdmin": "‏גישה להגדרות Bluetooth",
        "permlab_bodySensors": "גישה אל חיישני גוף (כמו מוניטורים לקצב לב)",
        "permlab_broadcastSticky": "שלח שידור דביק",
        "permlab_callPhone": "התקשר ישירות למספרי טלפון",
        "permlab_camera": "צלם תמונות וסרטונים",
        "permlab_changeNetworkState": "שנה את קישוריות הרשת",
        "permlab_changeTetherState": "שינוי של קישוריות קשורה",
        "permlab_changeWifiMulticastState": "‏אפשר קבלת שידורים מרובים ב-Wi-Fi",
        "permlab_changeWifiState": "‏התחברות והתנתקות מ-Wi-Fi",
        "permlab_changeWimaxState": "‏שנה את מצב WiMAX",
        "permlab_connection_manager": "ניהול חיבורי תקשורת",
        "permlab_control_incall_experience": "ספק חווית משתמש של שיחה נכנסת",
        "permlab_createNetworkSockets": "קבלת גישת רשת מלאה",
        "permlab_disableKeyguard": "ביטול נעילת המסך שלך",
        "permlab_enableCarMode": "הפוך מצב מכונית לפעיל",
        "permlab_expandStatusBar": "הרחב/כווץ את שורת המצב",
        "permlab_foregroundService": "הרצת שירות קדמה",
        "permlab_getAccounts": "חיפוש חשבונות במכשיר",
        "permlab_getPackageSize": "מדידת נפח האחסון של אפליקציות",
        "permlab_getTasks": "אחזור אפליקציות פעילות",
        "permlab_handoverStatus": "‏קבלת סטטוס העברה של Android Beam",
        "permlab_install_shortcut": "התקן קיצורי דרך",
        "permlab_invokeCarrierSetup": "הפעלה של אפליקציית תצורה שסופקה על ידי ספק",
        "permlab_killBackgroundProcesses": "סגירת אפליקציות אחרות",
        "permlab_manageFingerprint": "ניהול חומרה של טביעות אצבעות",
        "permlab_manageNetworkPolicy": "נהל מדיניות רשת",
        "permlab_manageOwnCalls": "ניתוב שיחות דרך המערכת",
        "permlab_manageProfileAndDeviceOwners": "ניהול בעלים של פרופיל ומכשיר",
        "permlab_modifyAudioSettings": "שנה את הגדרות האודיו שלך",
        "permlab_modifyNetworkAccounting": "שנה ניהול חשבונות של שימוש ברשת",
        "permlab_nfc": "‏שלוט ב-Near Field Communication",
        "permlab_persistentActivity": "הגדרת האפליקציה לפעול תמיד",
        "permlab_processOutgoingCalls": "ניתוב מחדש של שיחות יוצאות",
        "permlab_readCalendar": "קריאה של אירועי יומן ופרטיהם",
        "permlab_readCallLog": "קריאת יומן שיחות",
        "permlab_readCellBroadcasts": "קריאת הודעות שידור סלולרי",
        "permlab_readContacts": "קריאת אנשי הקשר שלך",
        "permlab_readHistoryBookmarks": "קריאת סימניות והיסטוריית האינטרנט שלך",
        "permlab_readInstallSessions": "קריאת פעילות התקנה",
        "permlab_readNetworkUsageHistory": "קריאת נתוני שימוש היסטוריים ברשת",
        "permlab_readPhoneNumbers": "גישה למספרי הטלפון",
        "permlab_readPhoneState": "קריאת הסטטוס והזהות של הטלפון",
        "permlab_readSms": "‏קריאת הודעות הטקסט שלך (SMS או MMS)",
        "permlab_readSyncSettings": "קרא את הגדרות הסינכרון",
        "permlab_readSyncStats": "קרא את הנתונים הסטטיסטיים של הסינכרון",
        "permlab_receiveBootCompleted": "הפעלה בעת אתחול",
        "permlab_receiveMms": "‏קבלת הודעות טקסט (MMS)",
        "permlab_receiveSms": "‏קבלת הודעות טקסט (SMS)",
        "permlab_receiveWapPush": "‏קבלת הודעות טקסט (WAP)",
        "permlab_recordAudio": "הקלט אודיו",
        "permlab_register_call_provider": "‏רשום חיבורי Telecom חדשים",
        "permlab_register_sim_subscription": "‏רשום חיבורי Telecom SIM חדשים",
        "permlab_removeDrmCertificates": "‏הסרת אישורי DRM",
        "permlab_reorderTasks": "סידור מחדש של אפליקציות פעילות",
        "permlab_requestDeletePackages": "בקשה למחוק חבילות",
        "permlab_requestIgnoreBatteryOptimizations": "בקשה להתעלם מאופטימיזציות של הסוללה",
        "permlab_requestInstallPackages": "בקשה להתקנת חבילות",
        "permlab_route_media_output": "ניתוב פלט מדיה",
        "permlab_runInBackground": "פעולה ברקע",
        "permlab_sdcardRead": "‏קריאת התוכן של כרטיס ה-SD שלך",
        "permlab_sdcardWrite": "‏שינוי או מחיקה של תוכן כרטיס ה-SD שלך",
        "permlab_sendSms": "‏שליחה והצגה של הודעות SMS",
        "permlab_setAlarm": "הגדרת התראה",
        "permlab_setInputCalibration": "שינוי הכיול של מכשיר קלט",
        "permlab_setTimeZone": "הגדר אזור זמן",
        "permlab_setWallpaper": "הגדרת טפט",
        "permlab_setWallpaperHints": "התאמת גודל הטפט שלך",
        "permlab_sim_communication": "‏שליחת פקודות אל ה-SIM",
        "permlab_statusBar": "השבת או שנה את שורת המצב",
        "permlab_statusBarService": "להיות שורת הסטטוס",
        "permlab_subscribedFeedsRead": "קרא עדכוני מנויים",
        "permlab_systemAlertWindow": "אפליקציה זו יכולה להופיע מעל אפליקציות אחרות.",
        "permlab_transmitIr": "שידור באינפרה-אדום",
        "permlab_uninstall_shortcut": "הסר התקנה של קיצורי דרך",
        "permlab_useBiometric": "שימוש בחומרה ביומטרית",
        "permlab_useDataInBackground": "שימוש בנתונים ברקע",
        "permlab_useFingerprint": "חומרה של טביעות אצבעות",
        "permlab_use_sip": "‏ביצוע/קבלה של שיחות SIP",
        "permlab_vibrate": "שליטה ברטט",
        "permlab_wakeLock": "מניעת מעבר הטלפון למצב שינה",
        "permlab_writeCalendar": "הוספה ושינוי של אירועי יומן ושליחת אימייל לאורחים ללא ידיעת הבעלים",
        "permlab_writeCallLog": "כתיבת יומן שיחות",
        "permlab_writeContacts": "שינוי אנשי הקשר שלך",
        "permlab_writeGeolocationPermissions": "שינוי הרשאות המיקום הגיאוגרפי של הדפדפן",
        "permlab_writeHistoryBookmarks": "כתיבת סימניות והיסטוריית אינטרנט",
        "permlab_writeSettings": "שינוי הגדרות מערכת",
        "permlab_writeSyncSettings": "הפעלת וכיבוי סנכרון"
    },
    "sidebars": {
        "donate": {
            "bank_transfer_name": "שם",
            "bitcoin_alt": "תרומת ביטקוין",
            "flattr_alt": "תרומה דרך Flattr",
            "heading": "תרומה",
            "hellotux": "👕 חולצות 👕 מטעם",
            "hellotux_alt": "HELLOTUX",
            "hellotux_donation": "ל־F-Droid יגיעו 3€ על כל חולצה שנמכרת.",
            "liberapay_alt": "תרומה דרך Liberapay",
            "litecoin_alt": "תרומת Litecoin",
            "paypal_alt": "תרומה דרך PayPal",
            "powered_by_donations": "F-Droid נסמכת על התרומות שלך!",
            "via_bank_transfer": "העברה בנקאית"
        },
        "lang": {
            "change": "החלפה"
        },
        "last_updated": {
            "heading": "עדכון אחרון"
        },
        "latest_packages": {
            "heading": "יישומונים עדכניים"
        },
        "news": {
            "heading": "חדשות"
        },
        "search": {
            "heading": "חיפוש יישומונים",
            "noscript": "נדרשת הפעלה של JavaScript",
            "search": "חיפוש"
        }
    }
}
