{
    "antifeatures": {
        "Ads": "Esta app contém publicidade",
        "DisabledAlgorithm": "Esta app tem uma assinatura de segurança fraca",
        "KnownVuln": "Esta app contém uma falha de segurança conhecida",
        "NoSourceSince": "O código-fonte já não está disponível e não é possível atualizar",
        "NonFreeAdd": "Esta app promove complementos não livres",
        "NonFreeAssets": "Esta app contém recursos não livres",
        "NonFreeDep": "Esta app depende de outras apps não livres",
        "NonFreeNet": "Esta app promove serviços de rede não livres",
        "Tracking": "Esta app monitoriza e reporta a sua atividade",
        "UpstreamNonFree": "O código-fonte não é totalmente Livre"
    },
    "index": {
        "download_fdroid": "Descarregar F-Droid",
        "gpg_signature": "Assinatura PGP",
        "introduction": "F-Droid é um catálogo de aplicações FOSS (programa livre e de código aberto) para Android. Disponibiliza um cliente que permite explorar, instalar e acompanhar atualizações no seu aparelho móvel.",
        "screenshot": "Captura de ecrã da app F-Droid para Android",
        "title": "O que é o F-Droid?"
    },
    "navigation": {
        "about": "Sobre",
        "browse": "Explorar",
        "contribute": "Colaborar",
        "documentation": "Documentação",
        "forum": "Fórum",
        "issues": "Problemas",
        "news": "Notícias"
    },
    "package": {
        "anti_features": "Características indesejadas",
        "anti_features_warning": "Esta app tem funcionalidades que pode não querer.",
        "author": "Autor",
        "build_metadata": "Metadados da compilação",
        "changelog": "Histórico de versões",
        "donate": "Fazer um donativo",
        "download": "Descarregar [file_extension]",
        "flattr": "Flattr",
        "gpg_signature": "Assinatura PGP",
        "issue_tracker": "Gestor de problemas",
        "liberapay": "Site Liberapay",
        "license": "Licença",
        "minimum_android_version": "Esta versão requer o Android [android_version] ou mais recente.",
        "new_in_version": "Novo na versão [latest_version]",
        "packages": "Pacotes",
        "permissions": "Permissões",
        "signed_by_developer": "Compilado e assinado pelo programador original.",
        "signed_by_fdroid": "Compilado e assinado pelo F-Droid e garantido que corresponde ao <a href=\"[source_code_url]\">tarball desta origem</a>.",
        "source_code": "Código-fonte",
        "suggest_downloading_via_fdroid": "Apesar de ser possível descarregar os APKs disponíveis abaixo como opção, alertamos que ao instalar dessa forma, não irá receber notificações de atualizações e que é uma forma menos segura para descarregar. É recomendável usar sempre o cliente F-Droid.",
        "technical_info": "Informação técnica",
        "translation": "Traduzir",
        "version_info": "<b>Versão [package_version]</b> ([package_version_code]) - Adicionada em [package_added_date]",
        "website": "Página web"
    },
    "permissions": {
        "permdesc_acceptHandovers": "Permite que o app continue uma chamada que foi iniciada em outro app.",
        "permdesc_accessCoarseLocation": "Este app pode ver seu local com base nas fontes de rede, como torres de celular e redes Wi-Fi. Esses serviços de localização precisam estar ativados e disponíveis no seu smartphone para que o app possa usá-los.",
        "permdesc_accessDrmCertificates": "Permite que o app provisione e use certificados de DRM. Não deve ser necessário para apps comuns.",
        "permdesc_accessFineLocation": "Este app pode ver seu local com base no GPS ou nas fontes de localização da rede, como torres de celular e redes Wi-Fi. Esses serviços de localização precisam estar ativados e disponíveis no seu smartphone para que o app possa usá-los. Isso pode aumentar o consumo de bateria.",
        "permdesc_accessImsCallService": "Permite que o app use o serviço de mensagens instantâneas para fazer chamadas sem sua intervenção.",
        "permdesc_accessLocationExtraCommands": "Permite que o app acesse comandos do provedor não relacionados à localização. Isso pode permitir que o app interfira no funcionamento do GPS ou de outras fontes de localização.",
        "permdesc_accessNetworkConditions": "Permite que o app detecte observações nas condições da rede. Não deve ser necessário para apps comuns.",
        "permdesc_accessNetworkState": "Permite que o app acesse informações sobre conexões de rede, como as redes existentes e conectadas.",
        "permdesc_accessNotifications": "Permite que o app recupere, examine e limpe notificações, inclusive as postadas por outros apps.",
        "permdesc_accessWifiState": "Permite que o app acesse informações sobre redes Wi-Fi, como a ativação do Wi-Fi e o nome dos dispositivos Wi-Fi conectados.",
        "permdesc_accessWimaxState": "Permite que o app determine se o WiMAX está ativado e acesse informações sobre as redes WiMAX conectadas.",
        "permdesc_access_notification_policy": "Permitir que o app leia e grave a configuração \\\"Não perturbe\\\".",
        "permdesc_addVoicemail": "Permite que o app adicione mensagens a sua caixa de entrada do correio de voz.",
        "permdesc_answerPhoneCalls": "Permite que o app atenda uma chamada recebida.",
        "permdesc_bindCarrierMessagingService": "Permite que o proprietário use a interface de nível superior de um serviço de mensagens de operadora. Não deve ser necessária para apps comuns.",
        "permdesc_bindCarrierServices": "Permite que o proprietário use serviços de operadora. Não deve ser necessário para apps comuns.",
        "permdesc_bindConditionProviderService": "Permite que o proprietário use a interface de nível superior de um serviço provedor de condições. Não deve ser necessário para apps comuns.",
        "permdesc_bindDreamService": "Permite que o sistema autorizado se conecte à interface de nível superior de um serviço de sonho. Não deve ser necessário para apps comuns.",
        "permdesc_bindNotificationListenerService": "Permite que o proprietário sujeite a interface de nível superior a um serviço ouvinte de notificações. Não deve ser necessário para apps comuns.",
        "permdesc_bind_connection_service": "Permite ao app interagir com os serviços de telefonia para fazer/receber chamadas.",
        "permdesc_bind_incall_service": "Permite que o app controle quando e como o usuário visualiza a chamada na tela.",
        "permdesc_bluetooth": "Permite que o app acesse a configuração do Bluetooth no telefone, além de fazer e aceitar conexões com dispositivos pareados.",
        "permdesc_bluetoothAdmin": "Permite que um app configure o telefone Bluetooth local, descubra e emparelhe com dispositivos remotos.",
        "permdesc_bodySensors": "Permite que o app acesse dados de sensores que monitoram sua condição física, como a frequência cardíaca.",
        "permdesc_broadcastSticky": "Permite que o app envie transmissões fixas, que permanecem depois que a transmissão termina. O uso excessivo pode deixar o telefone lento ou instável, fazendo com que ele use muita memória.",
        "permdesc_callPhone": "Permite que o app ligue para números de telefone sem sua intervenção. Isso pode resultar em cobranças ou chamadas inesperadas. Esta opção não permite que o app ligue para números de emergência. Apps maliciosos podem gerar custos com chamadas feitas sem sua confirmação.",
        "permdesc_camera": "Este app pode tirar fotos e gravar vídeos usando a câmera a qualquer momento.",
        "permdesc_changeNetworkState": "Permite que o app altere o estado de conectividade de rede.",
        "permdesc_changeTetherState": "Permite que o app altere o estado de conectividade de rede conectada.",
        "permdesc_changeWifiMulticastState": "Permite que o app receba pacotes enviados para todos os dispositivos em uma rede Wi-Fi usando endereços de difusão seletiva, e não apenas o telefone. Consome mais energia do que o modo não multicast.",
        "permdesc_changeWifiState": "Permite que o app conecte e desconecte dos pontos de acesso Wi-Fi e faça alterações nas configurações do dispositivo para redes Wi-Fi.",
        "permdesc_changeWimaxState": "Permite que o app conecte e desconecte o telefone de redes WiMAX.",
        "permdesc_connection_manager": "Permite que o app gerencie conexões de telecomunicações.",
        "permdesc_control_incall_experience": "Permite ao app fornecer uma experiência de usuário em chamada.",
        "permdesc_createNetworkSockets": "Permite que o app crie soquetes de rede e utilize protocolos de rede personalizados. O navegador e outros apps fornecem meios de enviar dados para a Internet, e por isso esta permissão não é necessária para enviar os dados.",
        "permdesc_disableKeyguard": "Permite que o app desative o bloqueio de teclas e qualquer segurança por senha associada. Por exemplo, o telefone desativa o bloqueio de telas ao receber uma chamada e o reativa quando a chamada é finalizada.",
        "permdesc_enableCarMode": "Permite que o app ative o modo Carro.",
        "permdesc_expandStatusBar": "Permite que o app expanda ou recolha a barra de status.",
        "permdesc_foregroundService": "Permite que o app use serviços em primeiro plano.",
        "permdesc_getAccounts": "Permite que o app obtenha a lista de contas conhecidas pelo telefone. Isso pode incluir todas as contas criadas pelos apps instalados.",
        "permdesc_getPackageSize": "Permite que o app recupere o código, os dados e os tamanhos de cache",
        "permdesc_getTasks": "Permite que o app obtenha informações sobre tarefas em execução atuais e recentes. Pode permitir que o app descubra informações sobre os apps usados ​​no dispositivo.",
        "permdesc_handoverStatus": "Permite que este app receba informações sobre as atuais transferências do Android Beam",
        "permdesc_install_shortcut": "Permite que um app adicione atalhos da tela inicial sem a intervenção do usuário.",
        "permdesc_invokeCarrierSetup": "Permite que o proprietário invoque o app de configuração fornecido pela operadora. Não deve ser necessário para apps comuns.",
        "permdesc_killBackgroundProcesses": "Permite que o app encerre processos em segundo plano de outros apps. Pode ser que outros apps parem de funcionar.",
        "permdesc_manageFingerprint": "Permite que o app execute métodos para adicionar e excluir modelos de impressão digital para uso.",
        "permdesc_manageNetworkPolicy": "Permite que o app gerencie políticas de rede e definia regras específicas para o app.",
        "permdesc_manageOwnCalls": "Permite que o app encaminhe suas chamadas por meio do sistema para melhorar a experiência com chamadas.",
        "permdesc_manageProfileAndDeviceOwners": "Permitir que os apps definam os proprietários de perfis e de dispositivos.",
        "permdesc_modifyAudioSettings": "Permite que o app modifique configurações de áudio globais como volume e alto-falantes de saída.",
        "permdesc_modifyNetworkAccounting": "Permite que o app modifique como o uso da rede é contabilizado em relação aos apps. Não deve ser usado em apps normais.",
        "permdesc_nfc": "Permite que o app se comunique com leitores, cartões e etiqueta NFC (comunicação a curta distância).",
        "permdesc_persistentActivity": "Permite que o app torne partes de si mesmo persistentes na memória. Pode limitar a memória disponível para outros apps, deixando o telefone mais lento.",
        "permdesc_processOutgoingCalls": "Permite que o app veja o número discado ao realizar uma chamada, com a opção de redirecionar a chamada para outro número ou abortá-la.",
        "permdesc_readCalendar": "Este app pode ler todos os eventos da agenda armazenados no seu smartphone e compartilhar ou salvar os dados da sua agenda.",
        "permdesc_readCallLog": "Este app pode ler seu histórico de chamadas.",
        "permdesc_readCellBroadcasts": "Permite que o app leia mensagens de difusão celular recebidas por seu dispositivo. Alertas de difusão celular são recebidos em alguns locais para avisar você de situações de emergência. Apps maliciosos podem interferir no desempenho ou funcionamento de seu dispositivo quando uma difusão celular de emergência é recebida.",
        "permdesc_readContacts": "Permite que o app leia dados dos contatos armazenados no telefone, incluindo a frequência com que você chamou, enviou e-mails ou se comunicou de qualquer outra forma com indivíduos específicos. Esta permissão autoriza o app a salvar seus dados de contato, e apps maliciosos podem compartilhar esses dados de contato sem seu conhecimento.",
        "permdesc_readHistoryBookmarks": "Permite que o app leia o histórico de todos os URLs acessados no navegador e todos os favoritos do navegador. Observação: pode não ser aplicável a navegadores de terceiros e outros apps com capacidade de navegação na web.",
        "permdesc_readInstallSessions": "Permite que um app leia sessões de instalação. Isso permite que ele veja detalhes sobre as instalações de pacote ativas.",
        "permdesc_readNetworkUsageHistory": "Permite que o app leia o histórico de uso da rede para redes e apps específicos.",
        "permdesc_readPhoneNumbers": "Permite que o app acesse os número de telefone do dispositivo.",
        "permdesc_readPhoneState": "Permite que o app acesse os recursos de telefonia do dispositivo. Esta permissão autoriza o app a determinar o número de telefone e IDs de dispositivo, quando uma chamada está ativa, e o número remoto conectado a uma chamada.",
        "permdesc_readSms": "Este app pode ler todas as mensagens SMS (de texto) armazenadas no seu smartphone.",
        "permdesc_readSyncSettings": "Permite que o app leia as configurações de sincronização de uma conta. Por exemplo, pode determinar se o app People está sincronizado com uma conta.",
        "permdesc_readSyncStats": "Permite que um app acesse as estatísticas de sincronização de uma conta, incluindo a história dos eventos de sincronização e a quantidade de dados sincronizados.",
        "permdesc_receiveBootCompleted": "Permite que o app inicie-se logo que o sistema concluir a inicialização. Isso pode tornar a inicialização do telefone mais lenta e permitir que o app deixe o telefone mais lento por estar sempre em execução.",
        "permdesc_receiveMms": "Permite que o app receba e processe mensagens MMS. Isso significa que o app pode monitorar ou excluir as mensagens enviadas para o dispositivo sem mostrá-las para você.",
        "permdesc_receiveSms": "Permite que o app receba e processe mensagens SMS. Isso significa que o app pode monitorar ou excluir mensagens enviadas para o dispositivo sem mostrá-las para você.",
        "permdesc_receiveWapPush": "Permite que o app receba e processe mensagens WAP. Esta permissão inclui a capacidade de monitorar ou excluir mensagens enviadas para você sem mostrá-las para você.",
        "permdesc_recordAudio": "Este app pode gravar áudio usando o microfone a qualquer momento.",
        "permdesc_register_call_provider": "Permite que o app registre novas conexões de telecomunicações.",
        "permdesc_register_sim_subscription": "Permite que o app registre novas conexões SIM de telecomunicações.",
        "permdesc_removeDrmCertificates": "Permite que um app remova certificados de DRM. Não deve ser necessário para apps comuns.",
        "permdesc_reorderTasks": "Permite que o app mova tarefas para o primeiro e o segundo plano, sem sua intervenção.",
        "permdesc_requestDeletePackages": "Permite que um app solicite a exclusão de pacotes.",
        "permdesc_requestIgnoreBatteryOptimizations": "Permite que um app peça permissão para ignorar as otimizações de bateria para esse app.",
        "permdesc_requestInstallPackages": "Permite que um app solicite a instalação de pacotes.",
        "permdesc_route_media_output": "Permite que um app faça o roteamento de saída de mídia para outros dispositivos externos.",
        "permdesc_runInBackground": "Este app pode ser executado em segundo plano, o que pode esgotar a bateria mais rapidamente.",
        "permdesc_sdcardRead": "Permite que o app leia o conteúdo do cartão SD.",
        "permdesc_sdcardWrite": "Permite que o app grave em seu cartão SD.",
        "permdesc_sendSms": "Permite que o app envie mensagens SMS. Isso pode resultar em cobranças inesperadas. Apps maliciosos podem gerar custos através do envio de mensagens sem sua confirmação.",
        "permdesc_setAlarm": "Permite que o app defina um alarme em um app despertador instalado. Alguns apps despertador podem não implementar este recurso.",
        "permdesc_setInputCalibration": "Permite que o app modifique os parâmetros de calibragem da tela sensível ao toque. Não deve ser necessário para apps normais.",
        "permdesc_setTimeZone": "Permite que o app altera o fuso horário do telefone.",
        "permdesc_setWallpaper": "Permite que o app defina o plano de fundo do sistema.",
        "permdesc_setWallpaperHints": "Permite que o app defina as dicas de tamanho do plano de fundo do sistema.",
        "permdesc_sim_communication": "Permite que o app envie comandos ao chip. Muito perigoso.",
        "permdesc_statusBar": "Permite que o app desative a barra de status ou adicione e remova ícones do sistema.",
        "permdesc_statusBarService": "Permite que o app seja a barra de status.",
        "permdesc_subscribedFeedsRead": "Permite que o app obtenha detalhes sobre os feeds sincronizados no momento.",
        "permdesc_systemAlertWindow": "Este app pode se sobrepor visualmente a outros apps ou a outras partes da tela. Isso pode interferir no uso normal do app e alterar a forma como os outros apps são exibidos.",
        "permdesc_transmitIr": "Permite que o app use o transmissor infravermelho do telefone.",
        "permdesc_uninstall_shortcut": "Permite que o app remova atalhos da tela inicial sem a intervenção do usuário.",
        "permdesc_useBiometric": "Permite que o app use hardware de biometria para autenticação",
        "permdesc_useDataInBackground": "Este app pode usar dados em segundo plano, o que pode aumentar o uso de dados.",
        "permdesc_useFingerprint": "Permite que o app use hardware de impressão digital para autenticação.",
        "permdesc_use_sip": "Permite que o app faça e receba chamadas SIP.",
        "permdesc_vibrate": "Permite que o app controle a vibração.",
        "permdesc_wakeLock": "Permite que o app impeça a suspensão do telefone.",
        "permdesc_writeCalendar": "Este app pode adicionar, remover ou alterar eventos da agenda no seu smartphone. Ele também pode enviar mensagens que aparentem ser de autoria do proprietário da agenda ou alterar eventos sem notificar o proprietário.",
        "permdesc_writeCallLog": "Permite que o app modifique o registro de chamadas de seu telefone, incluindo dados sobre chamadas recebidas e efetuadas. Apps maliciosos podem usar esta permissão para apagar ou modificar seu registro de chamadas.",
        "permdesc_writeContacts": "Permite que o app modifique os dados dos contatos armazenados no telefone, incluindo a frequência com que você fez chamadas, enviou e-mails ou se comunicou de outras formas com contatos específicos. Esta permissão autoriza o app a excluir dados de contatos.",
        "permdesc_writeGeolocationPermissions": "Permite que o app modifique as permissões de geolocalização do navegador. Apps maliciosos podem usar isso para permitir o envio de informações locais para sites arbitrários.",
        "permdesc_writeHistoryBookmarks": "Permite que o app modifique o histórico ou os favoritos do navegador armazenados no telefone. Pode permitir que o app apague ou modifique os dados do navegador. Observação: pode não ser aplicável a navegadores de terceiros e outros apps com capacidade de navegação na web.",
        "permdesc_writeSettings": "Permite que o app modifique os dados das configurações do sistema. Apps maliciosos podem corromper a configuração de seu sistema.",
        "permdesc_writeSyncSettings": "Permite que o app modifique as configurações de sincronização de uma conta. Por exemplo, pode ser usado para ativar a sincronização do app People com uma conta.",
        "permgroupdesc_calendar": "acesse sua agenda",
        "permgroupdesc_calllog": "ler e gravar o registro de chamadas telefônicas",
        "permgroupdesc_camera": "tire fotos e grave vídeos",
        "permgroupdesc_contacts": "acesse seus contatos",
        "permgroupdesc_location": "acesse o local do dispositivo",
        "permgroupdesc_microphone": "grave áudio",
        "permgroupdesc_phone": "faça e gerencie chamadas telefônicas",
        "permgroupdesc_sensors": "acesse dados do sensor sobre seus sinais vitais",
        "permgroupdesc_sms": "envie e veja mensagens SMS",
        "permgroupdesc_storage": "acesse fotos, mídia e arquivos do dispositivo",
        "permgrouplab_calendar": "Agenda",
        "permgrouplab_calllog": "Registro de chamadas",
        "permgrouplab_camera": "Câmera",
        "permgrouplab_contacts": "Contatos",
        "permgrouplab_location": "Local",
        "permgrouplab_microphone": "Microfone",
        "permgrouplab_phone": "Telefone",
        "permgrouplab_sensors": "Sensores corporais",
        "permgrouplab_sms": "SMS",
        "permgrouplab_storage": "Armazenamento",
        "permgrouprequest_calendar": "Permitir que <b>",
        "permgrouprequest_calllog": "Permitir que o app <b>",
        "permgrouprequest_camera": "Permitir que <b>",
        "permgrouprequest_contacts": "Permitir que <b>",
        "permgrouprequest_location": "Permitir que <b>",
        "permgrouprequest_microphone": "Permitir que <b>",
        "permgrouprequest_phone": "Permitir que <b>",
        "permgrouprequest_sensors": "Permitir que <b>",
        "permgrouprequest_sms": "Permitir que <b>",
        "permgrouprequest_storage": "Permitir que <b>",
        "permlab_acceptHandover": "continuar uma chamada de outro app",
        "permlab_accessCoarseLocation": "acessar localização aproximada (com base na rede)",
        "permlab_accessDrmCertificates": "acessar certificados de DRM",
        "permlab_accessFineLocation": "acessar localização precisa (GPS e com base na rede)",
        "permlab_accessImsCallService": "acessar serviço de mensagens instantâneas para chamadas",
        "permlab_accessLocationExtraCommands": "acessar comandos extras do provedor de localização",
        "permlab_accessNetworkConditions": "detectar observações nas condições da rede",
        "permlab_accessNetworkState": "ver conexões de rede",
        "permlab_accessNotifications": "acessar notificações",
        "permlab_accessWifiState": "ver conexões Wi-Fi",
        "permlab_accessWimaxState": "conectar e desconectar do WiMAX",
        "permlab_access_notification_policy": "acessar \\\"Não perturbe\\",
        "permlab_addVoicemail": "adicionar correio de voz",
        "permlab_answerPhoneCalls": "atender chamadas telefônicas",
        "permlab_bindCarrierMessagingService": "vincular a um serviço de mensagens de operadora",
        "permlab_bindCarrierServices": "vincular a serviços de operadora",
        "permlab_bindConditionProviderService": "associar a um serviço provedor de condições",
        "permlab_bindDreamService": "conectar-se a um serviço de sonho",
        "permlab_bindNotificationListenerService": "sujeitar a um serviço ouvinte de notificações",
        "permlab_bind_connection_service": "interagir com os serviços de telefonia",
        "permlab_bind_incall_service": "interagir com chamada na tela",
        "permlab_bluetooth": "parear com dispositivos Bluetooth",
        "permlab_bluetoothAdmin": "acessar configurações de Bluetooth",
        "permlab_bodySensors": "acessar sensores corporais (como monitores de frequência cardíaca)",
        "permlab_broadcastSticky": "enviar transmissão persistente",
        "permlab_callPhone": "ligar diretamente para números de telefone",
        "permlab_camera": "tirar fotos e gravar vídeos",
        "permlab_changeNetworkState": "alterar conectividade da rede",
        "permlab_changeTetherState": "alterar conectividade vinculada",
        "permlab_changeWifiMulticastState": "permitir recebimento de multicast Wi-Fi",
        "permlab_changeWifiState": "conectar e desconectar do Wi-Fi",
        "permlab_changeWimaxState": "alterar estado do WiMAX",
        "permlab_connection_manager": "gerenciar conexões de telecomunicações",
        "permlab_control_incall_experience": "fornecer uma experiência de usuário em chamada",
        "permlab_createNetworkSockets": "ter acesso total à rede",
        "permlab_disableKeyguard": "desativar o bloqueio de tela",
        "permlab_enableCarMode": "ativar o modo carro",
        "permlab_expandStatusBar": "expandir/recolher barra de status",
        "permlab_foregroundService": "executar serviço em primeiro plano",
        "permlab_getAccounts": "encontrar contas no dispositivo",
        "permlab_getPackageSize": "medir o espaço de armazenamento do app",
        "permlab_getTasks": "recuperar apps em execução",
        "permlab_handoverStatus": "receber status de transferência do Android Beam",
        "permlab_install_shortcut": "instalar atalhos",
        "permlab_invokeCarrierSetup": "invocar o app de configuração fornecido pela operadora",
        "permlab_killBackgroundProcesses": "fechar outros apps",
        "permlab_manageFingerprint": "gerenciar hardware de impressão digital",
        "permlab_manageNetworkPolicy": "gerenciar a política de rede",
        "permlab_manageOwnCalls": "encaminhar chamadas pelo sistema",
        "permlab_manageProfileAndDeviceOwners": "gerenciar proprietários de perfis e de dispositivos",
        "permlab_modifyAudioSettings": "alterar as suas configurações de áudio",
        "permlab_modifyNetworkAccounting": "modificar contagem de uso da rede",
        "permlab_nfc": "controlar a comunicação a curta distância",
        "permlab_persistentActivity": "sempre executar o app",
        "permlab_processOutgoingCalls": "redirecionar as chamadas efetuadas",
        "permlab_readCalendar": "Ler detalhes e eventos da agenda",
        "permlab_readCallLog": "ler registro de chamadas",
        "permlab_readCellBroadcasts": "ler mensagens de difusão celular",
        "permlab_readContacts": "ler seus contatos",
        "permlab_readHistoryBookmarks": "ler seu histórico e seus favoritos da web",
        "permlab_readInstallSessions": "ler sessões de instalação",
        "permlab_readNetworkUsageHistory": "ler histórico de uso da rede",
        "permlab_readPhoneNumbers": "ler números de telefone",
        "permlab_readPhoneState": "ler status e identidade do telefone",
        "permlab_readSms": "ler suas mensagens de texto (SMS ou MMS)",
        "permlab_readSyncSettings": "ler as configurações de sincronização",
        "permlab_readSyncStats": "ler estatísticas de sincronização",
        "permlab_receiveBootCompleted": "executar na inicialização",
        "permlab_receiveMms": "receber mensagens de texto (MMS)",
        "permlab_receiveSms": "receber mensagens de texto (SMS)",
        "permlab_receiveWapPush": "receber mensagens de texto (WAP)",
        "permlab_recordAudio": "gravar áudio",
        "permlab_register_call_provider": "registrar novas conexões de telecomunicações",
        "permlab_register_sim_subscription": "registrar novas conexões SIM de telecomunicações",
        "permlab_removeDrmCertificates": "remover certificados de DRM",
        "permlab_reorderTasks": "reordenar os apps em execução",
        "permlab_requestDeletePackages": "solicitar exclusão de pacotes",
        "permlab_requestIgnoreBatteryOptimizations": "solicitar que as otimizações de bateria sejam ignoradas",
        "permlab_requestInstallPackages": "solicitar pacotes de instalação",
        "permlab_route_media_output": "rotear saída de mídia",
        "permlab_runInBackground": "executar em segundo plano",
        "permlab_sdcardRead": "ler conteúdo do cartão SD",
        "permlab_sdcardWrite": "modificar ou excluir o conteúdo do cartão SD",
        "permlab_sendSms": "envie e veja mensagens SMS",
        "permlab_setAlarm": "definir um alarme",
        "permlab_setInputCalibration": "alterar calibragem do dispositivo de entrada",
        "permlab_setTimeZone": "definir fuso horário",
        "permlab_setWallpaper": "definir plano de fundo",
        "permlab_setWallpaperHints": "ajustar tamanho do plano de fundo",
        "permlab_sim_communication": "enviar comandos para o chip",
        "permlab_statusBar": "desativar ou modificar a barra de status",
        "permlab_statusBarService": "ser a barra de status",
        "permlab_subscribedFeedsRead": "ler feeds inscritos",
        "permlab_systemAlertWindow": "Este app pode se sobrepor visualmente a outros apps",
        "permlab_transmitIr": "transmitir infravermelhos",
        "permlab_uninstall_shortcut": "desinstalar atalhos",
        "permlab_useBiometric": "Usar hardware de biometria",
        "permlab_useDataInBackground": "usar dados em segundo plano",
        "permlab_useFingerprint": "usar hardware de impressão digital",
        "permlab_use_sip": "fazer/receber chamadas SIP",
        "permlab_vibrate": "controlar vibração",
        "permlab_wakeLock": "impedir modo de inatividade do telefone",
        "permlab_writeCalendar": "adicionar ou modificar compromissos e enviar e-mail para os convidados sem o conhecimento dos donos",
        "permlab_writeCallLog": "salvar no registo de chamadas",
        "permlab_writeContacts": "modificar seus contatos",
        "permlab_writeGeolocationPermissions": "Modifique as permissões de geolocalização de seu navegador",
        "permlab_writeHistoryBookmarks": "gravar seu histórico e seus favoritos da web",
        "permlab_writeSettings": "modificar configurações do sistema",
        "permlab_writeSyncSettings": "ativar e desativar sincronização"
    },
    "sidebars": {
        "donate": {
            "bank_transfer_name": "Nome",
            "bitcoin_alt": "Fazer donativo via Bitcoin",
            "flattr_alt": "Fazer donativo via Flattr",
            "heading": "Fazer donativo",
            "hellotux": "👕 T-shirts 👕 de",
            "hellotux_alt": "HELLOTUX",
            "hellotux_donation": "F-Droid receberá 3 euros por camisa vendida.",
            "liberapay_alt": "Fazer donativo via Liberapay",
            "litecoin_alt": "Fazer donativo via Litecoin",
            "paypal_alt": "Fazer donativo via PayPal",
            "powered_by_donations": "F-Droid é sustentado graças aos donativos!",
            "via_bank_transfer": "Transferência bancária"
        },
        "lang": {
            "change": "Alterar"
        },
        "last_updated": {
            "heading": "Última atualização"
        },
        "latest_packages": {
            "heading": "Apps recentes"
        },
        "news": {
            "heading": "Notícias"
        },
        "search": {
            "heading": "Procurar Apps",
            "noscript": "É necessário ter o JavaScript ativado",
            "search": "Procurar"
        }
    }
}
